…
```r
hist(aux$tsteps, xlab = "Number of steps per day", ylab = "Frequency of days", main = "")
```

<img src="PA1_template_files/figure-html/unnamed-chunk-5-1.png" style="display: block; margin: auto;" />

#### 2. The mean and median number of steps taken by date.


```r
data %>% group_by(date) %>% summarize(means = mean(steps, na.rm = FALSE),medians = median(steps,  na.rm = FALSE))
```

```
## # A tibble: 61 x 3
##    date        means medians
##    <date>      <dbl>   <dbl>
##  1 2012-10-01 NA          NA
##  2 2012-10-02  0.438       0
##  3 2012-10-03 39.4         0
##  4 2012-10-04 42.1         0
##  5 2012-10-05 46.2         0
##  6 2012-10-06 53.5         0
##  7 2012-10-07 38.2         0
##  8 2012-10-08 NA          NA
##  9 2012-10-09 44.5         0
## 10 2012-10-10 34.4         0
## # ... with 51 more rows
```
…
```r
hist(aux$tsteps, xlab = "Number of steps per day", ylab = "Frequency of days", main = "")
```

<img src="PA1_template_files/figure-html/unnamed-chunk-15-1.png" style="display: block; margin: auto;" />

* #### The mean and median number of steps taken by date.


```r
dataclean %>% group_by(date) %>% summarize(means = mean(steps),medians = median(steps))
```

```
## # A tibble: 61 x 3
##    date        means medians
##    <date>      <dbl>   <dbl>
##  1 2012-10-01 36.9      33.5
##  2 2012-10-02  0.438     0  
##  3 2012-10-03 39.4       0  
##  4 2012-10-04 42.1       0  
##  5 2012-10-05 46.2       0  
##  6 2012-10-06 53.5       0  
##  7 2012-10-07 38.2       0  
##  8 2012-10-08 36.9      33.5
##  9 2012-10-09 44.5       0  
## 10 2012-10-10 34.4       0  
## # ... with 51 more rows
```
…
